<svg width="49" height="49" viewBox="0 0 49 49" fill="none" xmlns="http://www.w3.org/2000/svg">
<path d="M1.96 9.11328C0.877737 9.11328 0 9.99077 0 11.0733V37.9253C0 39.0077 0.878178 39.8853 1.96 39.8853H47.04C48.1223 39.8853 49 39.0078 49 37.9253V11.0733C49 9.99082 48.1218 9.11328 47.04 9.11328H1.96ZM29.2652 18.2839C30.4578 18.2839 31.4136 18.5473 32.023 18.7923L31.6065 21.4123L31.3309 21.2729C30.7631 21.028 30.0339 20.7922 29.0279 20.8089C27.8237 20.8089 27.267 21.3461 27.267 21.8487C27.26 22.415 27.9175 22.7885 28.9927 23.3478C30.7673 24.2107 31.5875 25.2569 31.5759 26.6323C31.552 29.1419 29.4531 30.7636 26.2196 30.7636C24.8401 30.7484 23.5111 30.4564 22.7926 30.1189L23.2245 27.4117L23.6211 27.6047C24.6313 28.056 25.2855 28.2386 26.5166 28.2386C27.4008 28.2386 28.3497 27.8684 28.3572 27.058C28.363 26.5288 27.9606 26.1515 26.7632 25.5589C25.5964 24.9805 24.0495 24.0116 24.0667 22.2744C24.0849 19.9243 26.2258 18.2839 29.2652 18.2839V18.2839ZM4.33341 18.6683H9.29927C9.96797 18.6936 10.5079 18.9089 10.6942 19.6345L11.7646 25.1593C11.7648 25.1598 11.7644 25.1618 11.7646 25.1623L12.0861 26.8176L15.1012 18.6683H18.3627L13.5148 30.5967L10.2563 30.5998L7.66237 20.9743C9.20578 21.792 10.5198 22.738 11.2807 24.0399C11.0845 23.628 10.826 23.163 10.4952 22.7047C10.11 22.1709 9.278 21.4819 8.93025 21.1887C7.71848 20.1672 6.07281 19.3422 4.29514 18.9056L4.33341 18.6683V18.6683ZM19.6597 18.6821H22.8493L20.8541 30.5921H17.6645L19.6597 18.6821V18.6821ZM37.6749 18.6821H40.0912L42.6208 30.5921H39.7206C39.7206 30.5921 39.4329 29.2239 39.3394 28.8067C38.8835 28.8067 35.6954 28.8021 35.3366 28.8021C35.2153 29.1245 34.6782 30.5921 34.6782 30.5921H31.3967L36.038 19.6713C36.3666 18.8952 36.9267 18.6821 37.6749 18.6821V18.6821ZM37.9122 21.8854C37.7553 22.3284 37.482 23.0438 37.5003 23.0124C37.5003 23.0124 36.5185 25.631 36.2616 26.3108L38.8417 26.3092C38.602 25.1735 38.3621 24.0379 38.122 22.9023L37.9122 21.8855V21.8854Z" fill="#808080"/>
</svg>
