<svg width="20" height="20" viewBox="0 0 20 20" fill="none" xmlns="http://www.w3.org/2000/svg">
<path d="M6 9.63636L9.17647 14L15 8" stroke="#04C65D" stroke-width="2"/>
<circle cx="10" cy="10" r="9" stroke="#04C65D" stroke-width="2"/>
</svg>
