<svg width="20" height="20" viewBox="0 0 20 20" fill="none" xmlns="http://www.w3.org/2000/svg">
<path d="M7 7L13.4741 13.2519" stroke="#FF3800" stroke-width="2"/>
<path d="M13 7L6.52594 13.2519" stroke="#FF3800" stroke-width="2"/>
<circle cx="10" cy="10" r="9" stroke="#FF3800" stroke-width="2"/>
</svg>
