<?xml version="1.0" encoding="utf-8"?>
<!-- Generator: Adobe Illustrator 24.1.2, SVG Export Plug-In . SVG Version: 6.00 Build 0)  -->
<svg version="1.1" id="Слой_1" xmlns="http://www.w3.org/2000/svg" xmlns:xlink="http://www.w3.org/1999/xlink" x="0px" y="0px"
	 viewBox="0 0 60 60" style="enable-background:new 0 0 60 60;" xml:space="preserve">
<style type="text/css">
	.st0{fill:#E6FA95;}
	.st1{fill:#6DB5F8;}
	.st2{fill:#FFFFFF;}
	.st3{fill:#FFE843;}
	.st4{fill:#39AAFF;}
	.st5{fill:none;}
</style>
<g>
	<path class="st2" d="M47.5,59.9h-35c-6.8,0-12.4-5.5-12.4-12.4v-35c0-6.8,5.5-12.4,12.4-12.4h35c6.8,0,12.4,5.5,12.4,12.4v35
		C59.9,54.3,54.3,59.9,47.5,59.9z"/>
</g>
<g>
	<g>
		<path class="st3" d="M15.5,37.4H24c0,0-8.7-8.7-9.9-14s1.3-10.4,5.5-13.2c0,0-7.2,2.3-9.5,10c-1,3.1-0.9,6.5,0.2,9.6
			C11.2,32,12.7,34.9,15.5,37.4z"/>
		<path class="st4" d="M28.6,7.2c0,0-9.4,1.2-11.2,8.7c-2.1,8.4,14.8,21.7,14.8,21.7h16.4c0,0-18.8-9.1-25.7-17.8
			c-1.1-1.4-1.7-3.1-1.5-4.9C21.6,12.5,23.1,9.4,28.6,7.2z"/>
	</g>
	<g>
		<g>
			<path d="M11.3,48.7v1.2H6.9v-6h4.3v1.2h-3v1.2h2.3v1.1H8.2v1.3H11.3z"/>
			<path d="M11.8,46.6h2.9v1.2h-2.9V46.6z"/>
			<path d="M19.9,45.1h-2v4.8h-1.4v-4.8h-2v-1.2h5.4V45.1z"/>
			<path d="M20.1,46.9c0-1.8,1.2-3.1,3-3.1c1.8,0,3,1.2,3,3.1c0,1.8-1.2,3.1-3,3.1C21.3,50,20.1,48.7,20.1,46.9z M24.7,46.9
				c0-1.2-0.6-1.9-1.6-1.9c-1,0-1.6,0.8-1.6,1.9s0.6,1.9,1.6,1.9C24.1,48.8,24.7,48,24.7,46.9z"/>
			<path d="M31.6,48.7v1.2h-4.3v-6h1.4v4.8H31.6z"/>
			<path d="M36.9,48.7v1.2h-4.3v-6H34v4.8H36.9z"/>
			<path d="M38,43.9h1.4v6H38V43.9z"/>
			<path d="M46.2,43.9v6h-1.3l-2.7-3.8v3.8h-1.3v-6h1.3l2.7,3.8v-3.8H46.2z"/>
			<path d="M53.1,46.8v3.1h-1L52.1,49c-0.4,0.6-1,0.9-1.9,0.9c-1.7,0-2.8-1.2-2.8-3.1c0-1.9,1.2-3.1,3.1-3.1c1.2,0,2.1,0.6,2.6,1.6
				l-1.2,0.5c-0.2-0.6-0.7-0.9-1.4-0.9c-1,0-1.6,0.7-1.6,1.9c0,1.2,0.6,1.9,1.6,1.9c0.7,0,1.3-0.4,1.5-1.1h-1.4v-0.9H53.1z"/>
		</g>
	</g>
</g>
</svg>
